^C:\SILICONLABS\SIMPLICITYSTUDIO\V4\DEVELOPER\STACKS\BLE\V2.0.0.0\PROTOCOL\BLUETOOTH_2.0\BLE_STACK\SRC\HOST\GECKO_BGLIB.C
/c /IC:\SILICONLABS\SIMPLICITYSTUDIO\V4\DEVELOPER\STACKS\BLE\V2.0.0.0\PROTOCOL\BLUETOOTH_2.0\BLE_STACK\INC\COMMON /IC:\SILICONLABS\SIMPLICITYSTUDIO\V4\DEVELOPER\STACKS\BLE\V2.0.0.0\PROTOCOL\BLUETOOTH_2.0\BLE_STACK\INC\HOST /Zi /nologo /W3 /WX- /O2 /Oi /Oy- /GL /D WIN32 /D NDEBUG /D _CONSOLE /D _LIB /D C:\SiliconLabs\SimplicityStudio\v4\developer\stacks\ble\v2.0.0.0\app\bluetooth_2.0\examples_ncp_host\ota_dfu\..\..\include\host /D C:\SiliconLabs\SimplicityStudio\v4\developer\stacks\ble\v2.0.0.0\app\bluetooth_2.0\examples_ncp_host\ota_dfu\..\..\include\common /D "C:\Program Files (x86)\Microsoft Visual Studio 14.0\VC\include" /D "C:\Program Files (x86)\Microsoft Visual Studio 14.0\VC\atlmfc\include" /D "C:\Program Files (x86)\Windows Kits\10\Include\10.0.10240.0\ucrt" /D "C:\Program Files (x86)\Windows Kits\8.1\Include\um" /D "C:\Program Files (x86)\Windows Kits\8.1\Include\shared" /D "C:\Program Files (x86)\Windows Kits\8.1\Include\winrt" /D _UNICODE /D UNICODE /Gm- /EHsc /MD /GS /Gy /fp:precise /Zc:wchar_t /Zc:forScope /Zc:inline /Fo"RELEASE\\" /Fd"RELEASE\VC140.PDB" /Gd /TC /analyze- C:\SILICONLABS\SIMPLICITYSTUDIO\V4\DEVELOPER\STACKS\BLE\V2.0.0.0\PROTOCOL\BLUETOOTH_2.0\BLE_STACK\SRC\HOST\GECKO_BGLIB.C
^C:\SILICONLABS\SIMPLICITYSTUDIO\V4\DEVELOPER\STACKS\BLE\V2.0.0.0\APP\BLUETOOTH_2.0\EXAMPLES_NCP_HOST\OTA_DFU\MAIN.C
/c /IC:\SILICONLABS\SIMPLICITYSTUDIO\V4\DEVELOPER\STACKS\BLE\V2.0.0.0\PROTOCOL\BLUETOOTH_2.0\BLE_STACK\INC\COMMON /IC:\SILICONLABS\SIMPLICITYSTUDIO\V4\DEVELOPER\STACKS\BLE\V2.0.0.0\PROTOCOL\BLUETOOTH_2.0\BLE_STACK\INC\HOST /Zi /nologo /W3 /WX- /O2 /Oi /Oy- /GL /D WIN32 /D NDEBUG /D _CONSOLE /D _LIB /D C:\SiliconLabs\SimplicityStudio\v4\developer\stacks\ble\v2.0.0.0\app\bluetooth_2.0\examples_ncp_host\ota_dfu\..\..\include\host /D C:\SiliconLabs\SimplicityStudio\v4\developer\stacks\ble\v2.0.0.0\app\bluetooth_2.0\examples_ncp_host\ota_dfu\..\..\include\common /D "C:\Program Files (x86)\Microsoft Visual Studio 14.0\VC\include" /D "C:\Program Files (x86)\Microsoft Visual Studio 14.0\VC\atlmfc\include" /D "C:\Program Files (x86)\Windows Kits\10\Include\10.0.10240.0\ucrt" /D "C:\Program Files (x86)\Windows Kits\8.1\Include\um" /D "C:\Program Files (x86)\Windows Kits\8.1\Include\shared" /D "C:\Program Files (x86)\Windows Kits\8.1\Include\winrt" /D _UNICODE /D UNICODE /Gm- /EHsc /MD /GS /Gy /fp:precise /Zc:wchar_t /Zc:forScope /Zc:inline /Fo"RELEASE\\" /Fd"RELEASE\VC140.PDB" /Gd /TC /analyze- C:\SILICONLABS\SIMPLICITYSTUDIO\V4\DEVELOPER\STACKS\BLE\V2.0.0.0\APP\BLUETOOTH_2.0\EXAMPLES_NCP_HOST\OTA_DFU\MAIN.C
^C:\SILICONLABS\SIMPLICITYSTUDIO\V4\DEVELOPER\STACKS\BLE\V2.0.0.0\APP\BLUETOOTH_2.0\EXAMPLES_NCP_HOST\OTA_DFU\UART_WIN.C
/c /IC:\SILICONLABS\SIMPLICITYSTUDIO\V4\DEVELOPER\STACKS\BLE\V2.0.0.0\PROTOCOL\BLUETOOTH_2.0\BLE_STACK\INC\COMMON /IC:\SILICONLABS\SIMPLICITYSTUDIO\V4\DEVELOPER\STACKS\BLE\V2.0.0.0\PROTOCOL\BLUETOOTH_2.0\BLE_STACK\INC\HOST /Zi /nologo /W3 /WX- /O2 /Oi /Oy- /GL /D WIN32 /D NDEBUG /D _CONSOLE /D _LIB /D C:\SiliconLabs\SimplicityStudio\v4\developer\stacks\ble\v2.0.0.0\app\bluetooth_2.0\examples_ncp_host\ota_dfu\..\..\include\host /D C:\SiliconLabs\SimplicityStudio\v4\developer\stacks\ble\v2.0.0.0\app\bluetooth_2.0\examples_ncp_host\ota_dfu\..\..\include\common /D "C:\Program Files (x86)\Microsoft Visual Studio 14.0\VC\include" /D "C:\Program Files (x86)\Microsoft Visual Studio 14.0\VC\atlmfc\include" /D "C:\Program Files (x86)\Windows Kits\10\Include\10.0.10240.0\ucrt" /D "C:\Program Files (x86)\Windows Kits\8.1\Include\um" /D "C:\Program Files (x86)\Windows Kits\8.1\Include\shared" /D "C:\Program Files (x86)\Windows Kits\8.1\Include\winrt" /D _UNICODE /D UNICODE /Gm- /EHsc /MD /GS /Gy /fp:precise /Zc:wchar_t /Zc:forScope /Zc:inline /Fo"RELEASE\\" /Fd"RELEASE\VC140.PDB" /Gd /TC /analyze- C:\SILICONLABS\SIMPLICITYSTUDIO\V4\DEVELOPER\STACKS\BLE\V2.0.0.0\APP\BLUETOOTH_2.0\EXAMPLES_NCP_HOST\OTA_DFU\UART_WIN.C
