^C:\SILICONLABS\BGM-2.0.0-1343\HOST_EXAMPLE\OTADFU\MAIN.C|C:\SILICONLABS\BGM-2.0.0-1343\HOST_EXAMPLE\OTADFU\UART_WIN.C|C:\SILICONLABS\BGM-2.0.0-1343\SOURCE\HOST\BGLIB\GECKO_BGLIB.C
C:\SILICONLABS\BGM-2.0.0-1343\HOST_EXAMPLE\OTADFU\DEBUG\VC140.PDB
C:\SILICONLABS\BGM-2.0.0-1343\HOST_EXAMPLE\OTADFU\DEBUG\VC140.IDB
C:\SILICONLABS\BGM-2.0.0-1343\HOST_EXAMPLE\OTADFU\DEBUG\GECKO_BGLIB.OBJ
C:\SILICONLABS\BGM-2.0.0-1343\HOST_EXAMPLE\OTADFU\DEBUG\MAIN.OBJ
C:\SILICONLABS\BGM-2.0.0-1343\HOST_EXAMPLE\OTADFU\DEBUG\UART_WIN.OBJ
^C:\SILICONLABS\BGM-2.0.0-1343\SOURCE\HOST\BGLIB\GECKO_BGLIB.C
C:\SILICONLABS\BGM-2.0.0-1343\HOST_EXAMPLE\OTADFU\DEBUG\VC140.PDB
^C:\SILICONLABS\BGM-2.0.0-1343\HOST_EXAMPLE\OTADFU\MAIN.C
C:\SILICONLABS\BGM-2.0.0-1343\HOST_EXAMPLE\OTADFU\DEBUG\VC140.PDB
^C:\SILICONLABS\BGM-2.0.0-1343\HOST_EXAMPLE\OTADFU\UART_WIN.C
C:\SILICONLABS\BGM-2.0.0-1343\HOST_EXAMPLE\OTADFU\DEBUG\VC140.PDB
